…
``` r
## TASK: Create a visual of gdpPercap vs continent
df_q4 <- gapminder %>% 
  filter(year == c(year_min,year_max)) %>% 
  group_by(continent)

# Get outliers
out <- boxplot.stats(df_q4$gdpPercap)$out
out_ind <- which(df_q4$gdpPercap %in% c(out))
print(df_q4[out_ind, ])
```

    ## # A tibble: 33 × 6
    ## # Groups:   continent [4]
    ##    country        continent  year lifeExp      pop gdpPercap
    ##    <fct>          <fct>     <int>   <dbl>    <int>     <dbl>
    ##  1 Australia      Oceania    2007    81.2 20434176    34435.
    ##  2 Austria        Europe     2007    79.8  8199783    36126.
    ##  3 Bahrain        Asia       2007    75.6   708573    29796.
    ##  4 Belgium        Europe     2007    79.4 10392226    33693.
    ##  5 Canada         Americas   2007    80.7 33390141    36319.
    ##  6 Czech Republic Europe     2007    76.5 10228744    22833.
    ##  7 Denmark        Europe     2007    78.3  5468120    35278.
    ##  8 Finland        Europe     2007    79.3  5238460    33207.
    ##  9 France         Europe     2007    80.7 61083916    30470.
    ## 10 Germany        Europe     2007    79.4 82400996    32170.
    ## # … with 23 more rows
…
``` r
df_q4
```

    ## # A tibble: 284 × 6
    ## # Groups:   continent [5]
    ##    country     continent  year lifeExp      pop gdpPercap
    ##    <fct>       <fct>     <int>   <dbl>    <int>     <dbl>
    ##  1 Afghanistan Asia       1952    28.8  8425333      779.
    ##  2 Afghanistan Asia       2007    43.8 31889923      975.
    ##  3 Albania     Europe     1952    55.2  1282697     1601.
    ##  4 Albania     Europe     2007    76.4  3600523     5937.
    ##  5 Algeria     Africa     1952    43.1  9279525     2449.
    ##  6 Algeria     Africa     2007    72.3 33333216     6223.
    ##  7 Angola      Africa     1952    30.0  4232095     3521.
    ##  8 Angola      Africa     2007    42.7 12420476     4797.
    ##  9 Argentina   Americas   1952    62.5 17876956     5911.
    ## 10 Argentina   Americas   2007    75.3 40301927    12779.
    ## # … with 274 more rows
…
``` r
## TASK: Your second graph
# GOAL: Trend with the population
# Get outliers
out <- boxplot.stats(df_q4$pop)$out
```

    ## Warning in x[floor(d)] + x[ceiling(d)]: NAs produced by integer overflow

``` r
out_ind <- which(df_q4$pop %in% c(out))
print(df_q4[out_ind, ])
```

    ## # A tibble: 33 × 6
    ## # Groups:   continent [4]
    ##    country          continent  year lifeExp        pop gdpPercap
    ##    <fct>            <fct>     <int>   <dbl>      <int>     <dbl>
    ##  1 Bangladesh       Asia       2007    64.1  150448339     1391.
    ##  2 Brazil           Americas   1952    50.9   56602560     2109.
    ##  3 Brazil           Americas   2007    72.4  190010647     9066.
    ##  4 China            Asia       1952    44    556263527      400.
    ##  5 China            Asia       2007    73.0 1318683096     4959.
    ##  6 Congo, Dem. Rep. Africa     2007    46.5   64606759      278.
    ##  7 Egypt            Africa     2007    71.3   80264543     5581.
    ##  8 Ethiopia         Africa     2007    52.9   76511887      691.
    ##  9 France           Europe     2007    80.7   61083916    30470.
    ## 10 Germany          Europe     1952    67.5   69145952     7144.
    ## # … with 23 more rows
…
